286778 285637 314
32105 6112 308
33139 842533 525
993697 643314 525
637812 398240 509
420625 203385 449
211541 19798 383
640795 697754 442
473908 879056 525
774040 595253 509
886704 824159 525
669777 582200 509
959622 790912 525
369399 860806 525
40936 941220 525
987631 972062 427
997400 808330 525
362275 192531 443
913624 550195 525
217513 779060 509
789690 483637 509
757718 717770 424
536227 180090 470
464804 848790 525
528981 187648 470
475680 422239 444
571709 755477 509
717425 842880 525
427049 314226 449
555269 236219 470
449591 687370 509
53053 402270 443
818133 381708 509
72995 590019 470
492277 570918 470
939864 109527 525
939587 314797 525
173918 343796 443
947164 702558 525
780916 584166 509
692653 550596 509
205278 244701 443
527103 376746 470
459777 464358 444
766398 865857 525
907775 357176 525
298763 184052 443
179738 252355 443
603421 943590 525
34518 553853 470
54659 123925 354
243150 971350 525
656244 951808 525
266874 728667 509
254003 408307 441
645873 289600 509
896042 41610 525
365446 921568 525
573574 43618 470
572488 887995 525
335228 678255 509
130243 40184 354
786589 426836 509
599658 264099 470
439738 193363 449
462234 429244 444
204645 393665 443
615402 817143 509
798031 351815 509
644509 27560 509
829985 890262 525
586572 593952 403
568413 508966 470
638701 85650 509
552487 382184 470
272455 126632 443
422134 956819 525
568671 605588 434
798838 165171 509
748232 440994 509
5838 119447 354
993864 158751 525
503347 458462 444
144319 383663 443
848878 758627 525
900714 698493 525
792828 62806 509
236329 311036 407
295022 173414 443
355444 862860 525
483903 28389 449
590643 30842 470
35144 228681 386
401077 826467 509
973697 458466 525
103976 888174 525
365803 938288 525
619181 953325 525
11405 411383 449
123317 486311 449
17931 310153 443
394505 117315 443
247554 351177 441
432614 448810 400
776777 585892 509
581630 793854 509
39601 970728 525
751803 575908 509
609362 899640 525
853796 147234 525
538280 41277 470
511472 122910 449
839013 177395 525
296355 152911 443
790711 907738 525
424713 552339 470
844147 5430 525
187825 672397 509
801265 94877 509
540479 234814 470
11814 107528 354
438063 263996 449
681434 952153 525
967479 512118 525
881173 175751 525
367107 372364 392
520212 655218 509
767794 236544 509
205433 560500 470
730567 775905 468
465492 627902 509
895112 569643 525
308110 597550 470
654881 505090 509
572288 47974 470
308467 872532 525
916023 357986 525
653774 57733 509
417755 182315 449
291850 577111 470
812916 964960 525
852508 255063 525
751896 278259 509
720081 316570 509
278805 674857 509
615823 86479 470
965574 943432 414
526143 146175 470
594736 100175 470
600574 890383 525
974241 312741 525
638176 962843 525
316475 746040 509
515053 465301 470
819669 397593 509
656463 166825 509
766597 558103 509
663459 807987 504
483164 650333 509
551531 255205 470
40491 16432 324
21555 857739 525
116470 57768 354
473787 165933 449
129986 743966 509
184278 933239 525
66753 820385 509
494019 694338 509
524549 565378 452
986225 38755 525
710774 836769 468
702298 447010 509
999969 182453 525
558342 406326 470
605826 340498 470
413051 730841 509
97854 485012 449
188150 744987 509
624890 331934 470
244598 933893 525
509180 493851 426
431839 53894 449
223425 695550 509
190506 786462 509
236271 259295 368
917899 872354 476
261678 540511 470
949532 891688 507
667316 754380 504
407246 802557 509
521763 574429 452
525234 959446 525
824973 542939 509
166269 872155 525
260640 957966 525
450022 43621 449
664369 136070 509
565912 664494 509
555603 939169 525
546547 811561 509
935909 435635 525
890325 440415 525
615975 999152 525
437335 734600 509
957430 646816 525
515367 568901 452
44783 511532 449
767884 275085 509
693142 252631 509
323755 508111 449
932032 241064 525
983269 659626 525
430900 866284 525
617237 995348 525
364560 363316 317
814429 694586 504
234342 733908 509
104541 965998 525
282196 500625 449
568771 785133 509
511532 930906 525
416506 278904 449
442682 328345 449
104727 119048 354
732381 395981 509
844518 417249 525
668893 563810 509
600757 837202 509
528078 714494 509
570482 531223 452
382309 492889 449
419126 693258 509
932737 376306 525
209393 899429 525
894057 744321 525
64170 518569 470
336023 922250 525
563787 666203 509
304947 494504 449
