889813 149238
724257 461325
961327 903918
326716 620218
69528 996247
564428 380790
98892 606008
693925 551575
853277 872361
979305 972037
624904 944841
783461 337677
933230 443111
677650 578420
717986 406179
613365 913647
94938 652667
436968 468890
649681 413224
808572 376908
455565 792465
993468 51077
138198 780795
503549 928990
168902 270316
113941 359095
317318 6176
643916 94027
650184 300507
594248 555294
62448 644882
374072 454398
603897 281973
775071 105371
784291 438628
258729 7142
406252 478507
945736 664292
61773 110747
41198 167918
527460 838619
723564 228739
726187 764235
603403 218450
279439 592654
345516 642526
882771 224557
306554 328418
624807 820209
555379 588553
823382 115089
560902 710107
205522 9778
407137 113336
497520 122956
934575 565253
369375 727719
702478 265152
428745 446601
254932 143832
731080 762990
685214 939101
799546 845098
107635 752185
222291 524284
896690 626926
646344 271982
664140 399612
773550 63328
224711 699644
61014 748673
59263 412319
863203 618570
786528 292258
463326 983267
287588 196746
297933 68722
769369 380099
304808 74845
273148 785537
220209 8541
750516 849157
783336 941740
211635 79164
843984 359548
790118 466974
949152 74481
2455 221279
898587 138312
620342 849400
20664 761020
636918 63337
54872 739198
409231 702442
433053 523140
264736 893789
966710 582955
136509 886179
155495 263711
973354 836210
928356 305162
20218 654936
674371 788871
277439 174193
651836 158113
893818 714619
255022 17257
394641 713666
137993 508610
634708 307256
813167 491671
924904 565805
871478 69140
531542 668902
46357 865362
799255 759929
375923 730807
737511 952995
991496 128210
207589 82362
79327 412336
328227 40473
249464 475250
524260 571853
77468 456780
986650 945954
454045 808359
575110 950409
455211 664375
133209 396451
697729 401617
380420 772155
160435 977104
911375 709809
976426 207207
599947 725666
800421 409524
657033 921924
368381 612644
278350 640075
608726 112820
854963 760182
410813 335510
347592 164486
475056 324908
960112 237652
894825 410443
810898 909239
927089 242196
329301 760102
157480 381738
952156 902746
772547 617505
731542 72996
315775 746570
280102 129075
438875 504485
220948 520236
210557 419214
304223 793535
859479 530302
716502 848971
196653 702763
491436 920649
832155 710993
617613 46203
482792 201060
733075 799264
275313 206273
710292 734699
384959 609500
875864 413641
558205 738815
774993 315709
187979 960998
997388 683542
727365 535026
547263 308295
554906 692255
56782 686963
795067 261378
272448 534268
849315 495994
100151 37206
899985 278983
774965 338151
998587 912100
637265 236679
30013 188905
801316 235998
653148 91803
727964 114256
967803 518806
659931 65761
776046 759106
213623 816939
253014 792913
897046 989689
259167 166560
423541 565283
84455 374544
578432 71986
953508 220815
978645 157172
508365 115780
489963 309651
192032 774259
96884 275997
41837 678442
696372 137072
12953 643744
406940 394801
536166 254124
60874 208522
62381 261989
862251 72500
267124 909440
644932 577258
278126 474433
439787 412526
147704 907425
888744 866484
188279 631362
498814 575169
783717 198021
159426 282473
465382 838980
627234 134599
546059 871043
510923 113533
253475 211455
253466 825573
796029 877224
988732 620747
953659 308136
465897 131379
606321 13595
146101 912798
965287 975363
211527 179554
654174 591197
606460 779730
929041 987382
729643 971976
435354 704485
178629 262307
107904 832482
972423 826648
539933 79599
88319 586730
369703 793665
37763 799752
379784 169500
603492 532130
167392 89389
