679474 219964 509
529914 756026 509
181538 753222 509
845919 236507 525
871254 326258 525
401731 132923 443
463989 366607 449
52042 746530 509
459274 389191 449
510504 949059 525
857942 767030 525
697660 147426 509
840125 948587 507
540640 808474 509
707616 792554 468
563394 196429 470
174357 960470 525
321495 441746 449
525896 886534 525
436305 179881 449
717977 723709 411
987098 383508 525
372912 299038 441
152323 12920 375
924911 9611 525
486995 343521 449
339532 189988 443
529395 692855 509
490118 73233 449
568581 796978 509
770680 821994 468
704206 560600 509
990501 396543 525
558209 714073 509
629439 8244 509
241912 833960 509
347560 249299 441
508239 195730 449
997291 562245 525
549821 981640 525
867116 986612 507
941245 151013 525
972280 13256 525
943837 290155 525
331393 904816 525
558946 560475 359
390792 894359 525
471205 439641 444
326784 914942 525
37456 74870 340
146548 951014 525
721323 405703 509
892097 319695 525
941478 721783 525
463184 501144 426
495791 12213 449
552864 379425 470
18121 548376 470
898938 580775 525
827967 749888 468
230509 324927 443
772565 82120 509
604268 405916 470
518782 364437 470
598280 141700 470
586056 467539 470
934734 527257 525
49775 549972 470
486854 695558 509
253405 900740 525
59136 535952 470
873582 590424 525
446958 687066 509
365505 438333 449
631501 609486 509
722702 163781 509
149803 290989 443
981783 122046 525
182824 35209 383
152356 552802 470
708542 299780 509
515388 438744 470
815470 528461 509
879092 634513 525
572231 568250 377
67692 405314 443
280333 224799 443
445327 919955 525
245207 168215 443
890921 268408 525
332443 250732 407
618131 881676 525
201180 686507 509
614129 814833 509
94140 508902 449
106104 648501 509
599038 468561 470
51786 449264 449
326146 972117 525
807786 566333 509
392341 780845 509
71976 419111 449
445044 142875 449
236027 280426 407
508999 563000 470
195458 488422 449
278148 54765 443
232799 465170 449
427225 177698 449
968636 572547 525
800103 284035 509
573232 581538 390
752240 907171 525
244960 635318 509
827299 171428 509
492728 14370 449
285333 981742 525
976444 862066 507
611456 748447 509
620377 389809 470
560144 871088 525
174117 673051 509
67949 192808 383
114272 939609 525
684869 508451 509
203710 886390 525
473223 99291 449
997998 822666 525
746823 789644 468
39672 142167 354
5392 335726 443
519016 24622 470
47145 334018 443
723005 415464 509
345486 218448 443
372777 956255 525
829338 602654 509
93945 443670 449
654281 758581 504
694596 579827 509
282514 489706 449
950209 98439 525
192240 319528 443
310137 884538 525
830338 207111 509
843423 33844 525
504883 17001 449
241676 167290 443
937535 483407 525
424698 69306 449
385021 14449 443
866958 556830 525
259281 525512 470
92299 43618 351
698584 487978 509
151292 365796 443
456764 117539 449
58560 89399 351
422104 71784 449
292511 178462 443
96100 571013 470
109219 850885 525
482903 65664 449
957254 851039 507
207767 123546 383
264303 296026 407
158009 183135 370
941007 340056 525
484713 380176 449
949827 820867 525
605602 336053 470
333344 406039 441
282846 923866 525
689642 550461 509
876944 93674 525
671438 794629 504
765187 230533 509
135637 696481 509
109390 473134 449
11756 457499 449
974717 561603 525
259304 949023 525
14606 977086 525
785602 791916 406
595430 234169 470
630046 543409 509
958677 248903 525
173575 348671 443
66951 980961 525
568137 718664 509
498678 970162 525
227811 196551 386
309611 560245 470
501599 2399 449
965983 248878 525
640138 150142 509
964671 904094 507
287438 990067 525
265092 148569 443
952008 595962 525
355844 60472 443
915950 917040 339
102211 142982 375
577542 321887 470
322280 834184 509
849067 783142 525
981644 116888 525
854381 65652 525
700315 31899 509
893349 864959 445
641133 937811 525
332420 635437 509
54084 284979 443
968509 946719 414
329233 356438 441
716414 629403 504
61639 658308 509
586717 320612 470
969648 529626 525
559777 412874 470
617796 767013 509
765021 776017 468
389238 807357 509
289672 521910 470
546641 825926 509
423420 834274 509
773921 65748 509
781848 547982 509
707905 300528 509
51053 346145 443
796008 36056 509
455389 537125 470
4560 201322 383
890590 534824 525
399765 411100 449
534423 961561 525
81322 647611 509
270151 726978 509
116238 844003 525
430790 895924 525
757864 208025 509
542076 63403 470
516538 942893 525
2808 295915 443
116883 289604 443
358591 662473 509
709230 92628 509
424203 228361 449
534064 659642 509
122810 960339 525
616348 74679 470
258816 542499 470
841919 186059 525
496256 541137 470
363797 734941 509
133842 761506 509
61139 312971 443
645408 399057 509
640145 273977 509
136439 111346 349
418115 757145 509
884417 167379 525
44047 32352 324
619771 285296 470
445822 362031 449
678511 909583 525
397920 799869 509
485600 786266 509
829894 375333 509
360893 981280 525
